%YAML 1.1
%TAG !u! tag:unity3d.com,2011:
--- !u!1001 &4503301853986958893
PrefabInstance:
  m_ObjectHideFlags: 0
  serializedVersion: 2
  m_Modification:
    m_TransformParent: {fileID: 0}
    m_Modifications:
    - target: {fileID: 1000013234968400, guid: 4a6e9a7d544412d4d92db88d8587228e, type: 3}
      propertyPath: m_Name
      value: Enemy Variant
      objectReference: {fileID: 0}
    - target: {fileID: 4000010352911436, guid: 4a6e9a7d544412d4d92db88d8587228e, type: 3}
      propertyPath: m_LocalPosition.z
      value: 0.01
      objectReference: {fileID: 0}
    - target: {fileID: 4000010355002302, guid: 4a6e9a7d544412d4d92db88d8587228e, type: 3}
      propertyPath: m_LocalPosition.x
      value: 4.267
      objectReference: {fileID: 0}
    - target: {fileID: 4000010355002302, guid: 4a6e9a7d544412d4d92db88d8587228e, type: 3}
      propertyPath: m_LocalPosition.y
      value: -18.243
      objectReference: {fileID: 0}
    - target: {fileID: 4000010355002302, guid: 4a6e9a7d544412d4d92db88d8587228e, type: 3}
      propertyPath: m_LocalPosition.z
      value: 19.800003
      objectReference: {fileID: 0}
    - target: {fileID: 4000010355002302, guid: 4a6e9a7d544412d4d92db88d8587228e, type: 3}
      propertyPath: m_LocalRotation.x
      value: -0
      objectReference: {fileID: 0}
    - target: {fileID: 4000010355002302, guid: 4a6e9a7d544412d4d92db88d8587228e, type: 3}
      propertyPath: m_LocalRotation.y
      value: -0
      objectReference: {fileID: 0}
    - target: {fileID: 4000010355002302, guid: 4a6e9a7d544412d4d92db88d8587228e, type: 3}
      propertyPath: m_LocalRotation.z
      value: -0
      objectReference: {fileID: 0}
    - target: {fileID: 4000010355002302, guid: 4a6e9a7d544412d4d92db88d8587228e, type: 3}
      propertyPath: m_LocalRotation.w
      value: 1
      objectReference: {fileID: 0}
    - target: {fileID: 4000010355002302, guid: 4a6e9a7d544412d4d92db88d8587228e, type: 3}
      propertyPath: m_RootOrder
      value: 0
      objectReference: {fileID: 0}
    - target: {fileID: 4000010355002302, guid: 4a6e9a7d544412d4d92db88d8587228e, type: 3}
      propertyPath: m_LocalEulerAnglesHint.x
      value: 0
      objectReference: {fileID: 0}
    - target: {fileID: 4000010355002302, guid: 4a6e9a7d544412d4d92db88d8587228e, type: 3}
      propertyPath: m_LocalEulerAnglesHint.y
      value: 0
      objectReference: {fileID: 0}
    - target: {fileID: 4000010355002302, guid: 4a6e9a7d544412d4d92db88d8587228e, type: 3}
      propertyPath: m_LocalEulerAnglesHint.z
      value: 0
      objectReference: {fileID: 0}
    - target: {fileID: 4000010355002302, guid: 4a6e9a7d544412d4d92db88d8587228e, type: 3}
      propertyPath: m_LocalScale.x
      value: 0.08185615
      objectReference: {fileID: 0}
    - target: {fileID: 4000010355002302, guid: 4a6e9a7d544412d4d92db88d8587228e, type: 3}
      propertyPath: m_LocalScale.y
      value: 0.08185615
      objectReference: {fileID: 0}
    - target: {fileID: 4000010355002302, guid: 4a6e9a7d544412d4d92db88d8587228e, type: 3}
      propertyPath: m_LocalScale.z
      value: 0.08185615
      objectReference: {fileID: 0}
    - target: {fileID: 4000011104007054, guid: 4a6e9a7d544412d4d92db88d8587228e, type: 3}
      propertyPath: m_LocalPosition.z
      value: -0.02
      objectReference: {fileID: 0}
    - target: {fileID: 4000011668702476, guid: 4a6e9a7d544412d4d92db88d8587228e, type: 3}
      propertyPath: m_LocalPosition.z
      value: 0.01
      objectReference: {fileID: 0}
    - target: {fileID: 4000012006789140, guid: 4a6e9a7d544412d4d92db88d8587228e, type: 3}
      propertyPath: m_LocalPosition.z
      value: 0.01
      objectReference: {fileID: 0}
    - target: {fileID: 4000012110321374, guid: 4a6e9a7d544412d4d92db88d8587228e, type: 3}
      propertyPath: m_LocalPosition.z
      value: -0.01
      objectReference: {fileID: 0}
    - target: {fileID: 4000012176920862, guid: 4a6e9a7d544412d4d92db88d8587228e, type: 3}
      propertyPath: m_LocalPosition.z
      value: 0.01
      objectReference: {fileID: 0}
    - target: {fileID: 4000013813762262, guid: 4a6e9a7d544412d4d92db88d8587228e, type: 3}
      propertyPath: m_LocalPosition.z
      value: -0.01
      objectReference: {fileID: 0}
    - target: {fileID: 212000010125054856, guid: 4a6e9a7d544412d4d92db88d8587228e,
        type: 3}
      propertyPath: m_Color.r
      value: 1
      objectReference: {fileID: 0}
    - target: {fileID: 212000010125054856, guid: 4a6e9a7d544412d4d92db88d8587228e,
        type: 3}
      propertyPath: m_Color.g
      value: 0.5613208
      objectReference: {fileID: 0}
    - target: {fileID: 212000010125054856, guid: 4a6e9a7d544412d4d92db88d8587228e,
        type: 3}
      propertyPath: m_Color.b
      value: 0.5613208
      objectReference: {fileID: 0}
    - target: {fileID: 212000010125054856, guid: 4a6e9a7d544412d4d92db88d8587228e,
        type: 3}
      propertyPath: m_SortingOrder
      value: 0
      objectReference: {fileID: 0}
    - target: {fileID: 212000010173475376, guid: 4a6e9a7d544412d4d92db88d8587228e,
        type: 3}
      propertyPath: m_SortingOrder
      value: 0
      objectReference: {fileID: 0}
    - target: {fileID: 212000010221784098, guid: 4a6e9a7d544412d4d92db88d8587228e,
        type: 3}
      propertyPath: m_SortingOrder
      value: 0
      objectReference: {fileID: 0}
    - target: {fileID: 212000010307914626, guid: 4a6e9a7d544412d4d92db88d8587228e,
        type: 3}
      propertyPath: m_Color.g
      value: 0.5613208
      objectReference: {fileID: 0}
    - target: {fileID: 212000010307914626, guid: 4a6e9a7d544412d4d92db88d8587228e,
        type: 3}
      propertyPath: m_Color.b
      value: 0.5613208
      objectReference: {fileID: 0}
    - target: {fileID: 212000010307914626, guid: 4a6e9a7d544412d4d92db88d8587228e,
        type: 3}
      propertyPath: m_SortingOrder
      value: 0
      objectReference: {fileID: 0}
    - target: {fileID: 212000010552999528, guid: 4a6e9a7d544412d4d92db88d8587228e,
        type: 3}
      propertyPath: m_SortingOrder
      value: 0
      objectReference: {fileID: 0}
    - target: {fileID: 212000010780807464, guid: 4a6e9a7d544412d4d92db88d8587228e,
        type: 3}
      propertyPath: m_Color.g
      value: 0.5613208
      objectReference: {fileID: 0}
    - target: {fileID: 212000010780807464, guid: 4a6e9a7d544412d4d92db88d8587228e,
        type: 3}
      propertyPath: m_Color.b
      value: 0.5613208
      objectReference: {fileID: 0}
    - target: {fileID: 212000010780807464, guid: 4a6e9a7d544412d4d92db88d8587228e,
        type: 3}
      propertyPath: m_SortingOrder
      value: 0
      objectReference: {fileID: 0}
    - target: {fileID: 212000011013119468, guid: 4a6e9a7d544412d4d92db88d8587228e,
        type: 3}
      propertyPath: m_Color.g
      value: 0.5613208
      objectReference: {fileID: 0}
    - target: {fileID: 212000011013119468, guid: 4a6e9a7d544412d4d92db88d8587228e,
        type: 3}
      propertyPath: m_Color.b
      value: 0.5613208
      objectReference: {fileID: 0}
    - target: {fileID: 212000011013119468, guid: 4a6e9a7d544412d4d92db88d8587228e,
        type: 3}
      propertyPath: m_SortingOrder
      value: 0
      objectReference: {fileID: 0}
    - target: {fileID: 212000012087047472, guid: 4a6e9a7d544412d4d92db88d8587228e,
        type: 3}
      propertyPath: m_SortingOrder
      value: 0
      objectReference: {fileID: 0}
    - target: {fileID: 212000012216449410, guid: 4a6e9a7d544412d4d92db88d8587228e,
        type: 3}
      propertyPath: m_SortingOrder
      value: 0
      objectReference: {fileID: 0}
    - target: {fileID: 212000012735111186, guid: 4a6e9a7d544412d4d92db88d8587228e,
        type: 3}
      propertyPath: m_SortingOrder
      value: 0
      objectReference: {fileID: 0}
    - target: {fileID: 212000012791217132, guid: 4a6e9a7d544412d4d92db88d8587228e,
        type: 3}
      propertyPath: m_SortingOrder
      value: 0
      objectReference: {fileID: 0}
    - target: {fileID: 212000012915398384, guid: 4a6e9a7d544412d4d92db88d8587228e,
        type: 3}
      propertyPath: m_Color.g
      value: 0.5613208
      objectReference: {fileID: 0}
    - target: {fileID: 212000012915398384, guid: 4a6e9a7d544412d4d92db88d8587228e,
        type: 3}
      propertyPath: m_Color.b
      value: 0.5613208
      objectReference: {fileID: 0}
    - target: {fileID: 212000012915398384, guid: 4a6e9a7d544412d4d92db88d8587228e,
        type: 3}
      propertyPath: m_SortingOrder
      value: 0
      objectReference: {fileID: 0}
    - target: {fileID: 212000013224174920, guid: 4a6e9a7d544412d4d92db88d8587228e,
        type: 3}
      propertyPath: m_SortingOrder
      value: 0
      objectReference: {fileID: 0}
    - target: {fileID: 212000013509890724, guid: 4a6e9a7d544412d4d92db88d8587228e,
        type: 3}
      propertyPath: m_SortingOrder
      value: 0
      objectReference: {fileID: 0}
    - target: {fileID: 212000014158402456, guid: 4a6e9a7d544412d4d92db88d8587228e,
        type: 3}
      propertyPath: m_SortingOrder
      value: 0
      objectReference: {fileID: 0}
    - target: {fileID: 212000014216835264, guid: 4a6e9a7d544412d4d92db88d8587228e,
        type: 3}
      propertyPath: m_Color.g
      value: 0.5613208
      objectReference: {fileID: 0}
    - target: {fileID: 212000014216835264, guid: 4a6e9a7d544412d4d92db88d8587228e,
        type: 3}
      propertyPath: m_Color.b
      value: 0.5613208
      objectReference: {fileID: 0}
    - target: {fileID: 212000014216835264, guid: 4a6e9a7d544412d4d92db88d8587228e,
        type: 3}
      propertyPath: m_SortingOrder
      value: 0
      objectReference: {fileID: 0}
    m_RemovedComponents: []
  m_SourcePrefab: {fileID: 100100000, guid: 4a6e9a7d544412d4d92db88d8587228e, type: 3}
